<svg width="53" height="53" viewBox="0 0 53 53" fill="none" xmlns="http://www.w3.org/2000/svg">
<path fill-rule="evenodd" clip-rule="evenodd" d="M26.0685 0C11.6713 0 0 11.6713 0 26.0685C0 40.4657 11.6713 52.137 26.0685 52.137C40.4657 52.137 52.137 40.4657 52.137 26.0685C52.137 11.6713 40.4657 0 26.0685 0ZM20.337 12.2493C21.82 12.1818 22.2939 12.1653 26.0698 12.1653H26.0655C29.8426 12.1653 30.3146 12.1818 31.7977 12.2493C33.2779 12.3171 34.2887 12.5514 35.1751 12.8952C36.0903 13.2501 36.8637 13.7251 37.6371 14.4984C38.4106 15.2713 38.8855 16.0469 39.2418 16.9614C39.5836 17.8454 39.8183 18.8557 39.8878 20.3358C39.9544 21.8189 39.9717 22.2927 39.9717 26.0686C39.9717 29.8445 39.9544 30.3173 39.8878 31.8003C39.8183 33.2798 39.5836 34.2904 39.2418 35.1748C38.8855 36.0889 38.4106 36.8646 37.6371 37.6374C36.8646 38.4108 36.0901 38.887 35.176 39.2421C34.2913 39.5859 33.2798 39.8202 31.7998 39.888C30.3167 39.9556 29.8443 39.9721 26.0681 39.9721C22.2925 39.9721 21.8189 39.9556 20.3358 39.888C18.856 39.8202 17.8454 39.5859 16.9608 39.2421C16.0469 38.887 15.2713 38.4108 14.4988 37.6374C13.7256 36.8646 13.2506 36.0889 12.8952 35.1745C12.5517 34.2904 12.3174 33.2802 12.2493 31.8C12.1821 30.317 12.1653 29.8445 12.1653 26.0686C12.1653 22.2927 12.1827 21.8186 12.2491 20.3355C12.3156 18.856 12.5503 17.8454 12.8949 16.9611C13.2512 16.0469 13.7263 15.2713 14.4996 14.4984C15.2725 13.7254 16.0481 13.2503 16.9626 12.8952C17.8466 12.5514 18.8569 12.3171 20.337 12.2493Z" fill="#E17B1C"/>
<path fill-rule="evenodd" clip-rule="evenodd" d="M24.8461 14.8999C25.0834 14.8996 25.3388 14.8997 25.6144 14.8998L26.0687 14.8999C29.7074 14.8999 30.1387 14.913 31.5756 14.9783C32.9044 15.0391 33.6255 15.2611 34.1059 15.4476C34.7419 15.6947 35.1953 15.9901 35.6721 16.4671C36.149 16.9442 36.4443 17.3985 36.6919 18.0345C36.8785 18.5145 37.1008 19.2357 37.1613 20.5646C37.2265 22.0015 37.2407 22.4331 37.2407 26.0705C37.2407 29.7081 37.2265 30.1397 37.1613 31.5766C37.1005 32.9055 36.8785 33.6267 36.6919 34.1066C36.4449 34.7426 36.149 35.1956 35.6721 35.6723C35.1951 36.1494 34.7422 36.4448 34.1059 36.6918C33.6261 36.8792 32.9044 37.1007 31.5756 37.1614C30.1389 37.2268 29.7074 37.2409 26.0687 37.2409C22.4296 37.2409 21.9983 37.2268 20.5616 37.1614C19.2329 37.1001 18.5118 36.878 18.031 36.6915C17.3951 36.4444 16.9408 36.1491 16.4638 35.672C15.9868 35.195 15.6916 34.7418 15.4439 34.1054C15.2574 33.6256 15.0351 32.9043 14.9746 31.5754C14.9093 30.1386 14.8962 29.7069 14.8962 26.0671C14.8962 22.4274 14.9093 21.9981 14.9746 20.5612C15.0354 19.2323 15.2574 18.5111 15.4439 18.0306C15.6909 17.3945 15.9868 16.9402 16.4638 16.4632C16.9408 15.9861 17.3951 15.6907 18.031 15.4432C18.5114 15.2558 19.2329 15.0343 20.5616 14.9732C21.8188 14.9164 22.3061 14.8994 24.8461 14.8965V14.8999ZM33.3434 17.1631C32.4405 17.1631 31.7079 17.8948 31.7079 18.7981C31.7079 19.7011 32.4405 20.4337 33.3434 20.4337C34.2462 20.4337 34.9787 19.7011 34.9787 18.7981C34.9787 17.8952 34.2462 17.1626 33.3434 17.1626V17.1631ZM19.07 26.0737C19.07 22.2083 22.2034 19.0742 26.0684 19.0741C29.9334 19.0741 33.0662 22.2082 33.0662 26.0737C33.0662 29.9393 29.9336 33.0719 26.0687 33.0719C22.2036 33.0719 19.07 29.9393 19.07 26.0737Z" fill="#E17B1C"/>
<path d="M26.0685 21.103C28.8106 21.103 31.0339 23.326 31.0339 26.0685C31.0339 28.8106 28.8106 31.0339 26.0685 31.0339C23.326 31.0339 21.103 28.8106 21.103 26.0685C21.103 23.326 23.326 21.103 26.0685 21.103Z" fill="#E17B1C"/>
</svg>
